{
	"Categorías": [{
		"en": "Categories"
	}],
	"Buscar cursos": [{
		"en": "Search courses"
	}],
	"Ingresar": [{
		"en": "Login"
	}],
	"Registro": [{
		"en": "Register"
	}],
	"Español": [{
		"en": "Spanish"
	}],
	"Inglés": [{
		"en": "English"
	}],
	"Cursos de": [{
		"en": ""
	}],
	"Otros": [{
		"en": "Others"
	}],
	"Marca afiliada a": [{
		"en": "Affiliated brand"
	}],
	"Ingreso de usuarios": [{
		"en": "User Login"
	}],
	"Ingreso con Facebook": [{
		"en": "Login with Facebook"
	}],
	"Ingreso con Google": [{
		"en": "Login with Google"
	}],
	"Ingresar": [{
		"en": "Login"
	}],
	"¿No tienes una cuenta registrada?": [{
		"en": "Do not have a registered account?"
	}],
	"Registrarse": [{
		"en": "Check in"
	}],
	"Registro con Facebook": [{
		"en": "Register with Facebook"
	}],
	"Registro con Google": [{
		"en": "Register with Google"
	}],
	"Nombre completo": [{
		"en": "Full name"
	}],
	"Correo Electrónico": [{
		"en": "Email"
	}],
	"Contraseña": [{
		"en": "Password"
	}],
	"Enviar": [{
		"en": "Submit"
	}],
	"Al registrarse usted acepta nuestras condiciones y políticas de privacidad": [{
		"en": "By registering you accept our conditions and privacy policies"
	}],
	"¿Ya tienes una cuenta registrada?": [{
		"en": "Do you already have a registered account?"
	}],
	"¿Ya tienes una cuenta registrada?": [{
		"en": "Do you already have a registered account?"
	}],
	"Leer más": [{
		"en": "Read more"
	}],
	"Ver cursos": [{
		"en": "See courses"
	}],
	"Ver Curso": [{
		"en": "See Course"
	}],
	"Regresar": [{
		"en": "To return"
	}],
	"Ofertas Especiales": [{
		"en": "Special offers"
	}],
	"Todos los cursos a": [{
		"en": "All courses at"
	}],
	"Todo": [{
		"en": "Everything"
	}],
	"La oferta termina en": [{
		"en": "The offer ends in"
	}],
	"días": [{
		"en": "days"
	}],
	"día": [{
		"en": "day"
	}],
	"Cursos con": [{
		"en": ""
	}],
	"de descuento": [{
		"en": "OFF"
	}],
	"Los mejores cursos de": [{
		"en": "The best courses of"
	}],
	"La oferta termina hoy": [{
		"en": "The offer ends today"
	}],
	"Ver todo": [{
		"en": "See all"
	}],
	"Ir a cursos de": [{
		"en": "Go to courses"
	}],
	"Somos una marca afiliada a UDEMY principal destino del mundo para cursos en línea": [{
		"en": "We are a brand affiliated with UDEMY, the world's leading destination for online courses"
	}],
	"Certifica tus habilidades con más de 55.000 cursos en línea": [{
		"en": "Certify your skills with more than 55,000 online courses"
	}],
	"Acceso de por vida en dispositivos móviles y TV, estudia donde quieras y cuando quieras": [{
		"en": "Lifetime access on mobile devices and TV, study where you want and when you want"
	}],
	"30 días de garantía para probar el curso o solicita devolución de dinero": [{
		"en": "30 days guarantee to try the course or request money back"
	}],
	"Síguenos": [{
		"en": "Follow us"
	}],
	"¿Hoy qué quieres aprender?": [{
		"en": "What do you want to learn today?"
	}],
	"Resuelve tu inquietud": [{
		"en": "Solve your concern"
	}],
	"Escriba su nombre": [{
	"en": "Write your name"
	}],
	"Escriba su correo electrónico": [{
		"en": "Write your email"
	}],
	"Escriba su mensaje": [{
		"en": "Write your message"
	}],
	"Ordenar Cursos": [{
		"en": "Sort Courses"
	}],
	"Mejor calificado": [{
		"en": "Highest Rated"
	}],
	"Más nuevo": [{
		"en": "Newest"
	}],
	"Más revisado": [{
		"en": "Most Reviewed"
	}],
	"Precio bajo a alto": [{
		"en": "Price low to high"
	}],
	"Precio alto a bajo": [{
		"en": "Price high-to low"
	}],
	"Relevancia": [{
		"en": "Relevance"
	}],
	"Gratis": [{
		"en": "Free"
	}],
	"Ver Ofertas": [{
		"en": "See Offers"
	}],
	"Por favor verifique su dirección de correo electrónico": [{
		"en": "Please verify your email address"
	}],
	"VERIFIQUE SU DIRECCIÓN DE CORREO ELECTRÓNICO": [{
		"en": "CHECK YOUR EMAIL ADDRESS"
	}],
	"Para comenzar a usar su cuenta debe confirmar su dirección de correo electrónico": [{
		"en": "To start using your account you must confirm your email address"
	}],
	"Si no se inscribió en esta cuenta, puede ignorar este correo electrónico y la cuenta se eliminará.": [{
		"en": "If you did not sign up for this account, you can ignore this email and the account will be deleted."
	}],
	"Ha ocurrido un problema enviando verificación de correo electrónico a": [{
		"en": "A problem has occurred sending email verification to"
	}],
	"Por favor revise la bandeja de entrada o la carpeta de SPAM de su correo electrónico": [{
		"en": "Please check the inbox or the SPAM folder of your email"
	}],
	"para verificar la cuenta": [{
		"en": "to verify the account"
	}],
	"Página no encontrada": [{
		"en": "Page not found"
	}],
	"Error al registrar el usuario, no se permiten caracteres especiales": [{
		"en": "Error registering the user, special characters are not allowed"
	}],
	"No se ha podido verificar el correo electrónico,  vuelva a registrarse": [{
		"en": "The email could not be verified, please re-register"
	}],
	"Hemos verificado su correo electrónico, ya puede ingresar al sistema": [{
		"en": "We have verified your email, you can enter the system"
	}],
	"Gracias": [{
		"en": "Thanks"
	}],
	"NO HA VERIFICADO SU CORREO ELECTRÓNICO": [{
		"en": "YOU HAVE NOT VERIFIED YOUR EMAIL"
	}],
	"Por favor revise la bandeja de entrada o la carpeta de SPAM de su correo para verififcar la dirección de correo electrónico": [{
		"en": "Please check the inbox or SPAM folder of your email to verify the email address"
	}],
	"ERROR AL INGRESAR": [{
		"en": "ERROR ON ENTRY"
	}],
	"Por favor revise que el email exista o la contraseña coincida con la registrada": [{
		"en": "Please check that the email exists or the password matches the registered one"
	}],
	"Error al ingresar al sistema, no se permiten caracteres especiales": [{
		"en": "Error entering the system, special characters are not allowed"
	}],
	"Ver perfil": [{
		"en": "Profile"
	}],
	"Salir": [{
		"en": "Logout"
	}],
	"El correo electrónico ya existe en la base de datos, fue registrado a través de": [{
		"en": "The email already exists in the database, it was registered through"
	}],
	"por favor ingrese otro diferente": [{
		"en": "please enter a different one"
	}],
	"esta página": [{
		"en": "this page"
	}],
	"No se permiten números ni caracteres especiales": [{
		"en": "No numbers or special characters are allowed"
	}],
	"Atención": [{
		"en": "Warning"
	}],
	"Este campo es obligatorio": [{
		"en": "This field is required"
	}],
	"Escriba correctamente el correo electrónico": [{
		"en": "Write the email correctly"
	}],
	"El correo electrónico ya existe en la base de datos, por favor ingrese otro diferente": [{
		"en": "The email already exists in the database, please enter a different one"
	}],
	"No se permiten caracteres especiales": [{
		"en": "Special characters are not allowed"
	}],
	"Debe aceptar nuestras condiciones de uso y políticas de privacidad": [{
		"en": "You must accept our terms of use and privacy policies"
	}],
	"Solicitud de nueva contraseña": [{
		"en": "Request for a new password"
	}],
	"Escribe el correo electrónico con el que estás registrado y allí te enviaremos una nueva contraseña:": [{
		"en": "Write the email with which you are registered and there we will send you a new password:"
	}],
	"¿Olvidaste tu contraseña?": [{
		"en": "Did you forget your password?"
	}],
	"Su nueva contraseña": [{
		"en": "Your new password"
	}],
	"Ingrese nuevamente al sitio": [{
		"en": "Enter the site again"
	}],
	"Ha ocurrido un problema enviando cambio de contraseña a": [{
		"en": "A problem has occurred sending password change to"
	}],
	"Por favor revise la bandeja de entrada o la carpeta de SPAM de su correo electrónico": [{
		"en": "Please check the inbox or the SPAM folder of your email"
	}],
	"para su cambio de contraseña": [{
		"en": "for your password change"
	}],
	"El correo electrónico no existe en el sistema": [{
		"en": "Email does not exist in the system"
	}],
	"Error al enviar el correo electrónico, está mal escrito": [{
		"en": "Error sending the email, is poorly written"
	}],
	"Ver más cursos de": [{
		"en": "See more courses of"
	}],
	"Desarrollo": [{
		"en": "Development"
	}],
	"Negocios": [{
		"en": "Bussines"
	}],
	"Software": [{
		"en": "Software"
	}],
	"Oficina": [{
		"en": "Office"
	}],
	"D. Personal": [{
		"en": "Personal Dev."
	}],
	"Diseño": [{
		"en": "Design"
	}],
	"Marketing": [{
		"en": "Marketing"
	}],
	"Música": [{
		"en": "Music"
	}],
	"Salud y Fitness": [{
		"en": "Health and Fitness"
	}],
	"Fotografía": [{
		"en": "Photography"
	}],
	"Estilo de vida": [{
		"en": "Lifestyle"
	}],
	"Idiomas": [{
		"en": "Language"
	}],
	"Formación de Profesorado": [{
		"en": "Teacher Training"
	}],
	"Estudios Académicos": [{
		"en": "Academics"
	}],
	"Preparación para Exámenes": [{
		"en": "Test Prep"
	}],
	"Preparación para Exámenes": [{
		"en": "Test Prep"
	}],
	"Cursos gratis de Desarrollo": [{
		"en": "Free Development Courses"
	}],
	"Desarrollo web": [{
		"en": "Web development"
	}],
	"Aplicaciones móviles": [{
		"en": "Mobile apps"
	}],
	"Lenguajes de programación": [{
		"en": "Programming languages"
	}],
	"Desarrollo de videoluegos": [{
		"en": "Development of video games"
	}],
	"Bases de datos": [{
		"en": "Databases"
	}],
	"Testeo de software": [{
		"en": "Software testing"
	}],
	"Ingeniería de software": [{
		"en": "Software Engineering"
	}],
	"Herramientas de desarrollo": [{
		"en": "Development tools"
	}],
	"Comercio electrónico": [{
		"en": "Electronic commerce"
	}],
	"Cursos gratis de Negocios": [{
		"en": "Free Business Courses"
	}],
	"Finanzas": [{
		"en": "Finance"
	}],
	"Emprendimiento": [{
		"en": "Entrepreneurship"
	}],
	"Comunicación": [{
		"en": "Communication"
	}],
	"Gestión empresarial": [{
		"en": "Business management"
	}],
	"Ventas": [{
		"en": "Sales"
	}],
	"Estrategia": [{
		"en": "Strategy"
	}],
	"Operaciones": [{
		"en": "Operations"
	}],
	"Gestión de proyectos": [{
		"en": "Project management"
	}],
	"Derecho empresarial": [{
		"en": "Business law"
	}],
	"Datos y análisis": [{
		"en": "Data and analysis"
	}],
	"Negocios desde casa": [{
		"en": "Business from home"
	}],
	"Recursos humanos": [{
		"en": "Human Resources"
	}],
	"Industria": [{
		"en": "Industry"
	}],
	"Medios de comunicación": [{
		"en": "Media"
	}],
	"Bienes inmuebles": [{
		"en": "Property"
	}],
	"Cursos gratis de IT y Software": [{
		"en": "Free IT and Software courses"
	}],
	"Certificaciones de IT": [{
		"en": "IT Certifications"
	}],
	"Redes y seguridad": [{
		"en": "Networks and security"
	}],
	"Hardware": [{
		"en": "Hardware"
	}],
	"Sistemas operativos": [{
		"en": "Operating systems"
	}],
	"Cursos gratis de Productividad": [{
		"en": "Free Productivity Courses"
	}],
	"Microsoft": [{
		"en": "Microsoft"
	}],
	"Apple": [{
		"en": "Manzana"
	}],
	"Google": [{
		"en": "Google"
	}],
	"SAP": [{
		"en": "SAP"
	}],
	"Intuit": [{
		"en": "Intuit"
	}],
	"Salesforce": [{
		"en": "Salesforce"
	}],
	"Oracle": [{
		"en": "Oracle"
	}],
	"Cursos gratis de Desarrollo personal": [{
		"en": "Free Personal Development courses"
	}],
	"Transformación personal": [{
		"en": "Personal transformation"
	}],
	"Productividad": [{
		"en": "Productivity"
	}],
	"Liderazgo": [{
		"en": "Leadership"
	}],
	"Finanzas personales": [{
		"en": "Personal finances"
	}],
	"Desarrollo profesional": [{
		"en": "Professional development"
	}],
	"Paternidad y relaciones": [{
		"en": "Paternity and relationships"
	}],
	"Felicidad": [{
		"en": "Happiness"
	}],
	"Religión y espiritualidad": [{
		"en": "Religion and spirituality"
	}],
	"Desarrollo de marca personal": [{
		"en": "Personal brand development"
	}],
	"Creatividad": [{
		"en": "Creativity"
	}],
	"influencia": [{
		"en": "influence"
	}],
	"Autoestima": [{
		"en": "Self esteem"
	}],
	"Gestión del estrés": [{
		"en": "Stress management"
	}],
	"Memoria y técnicas de estudio": [{
		"en": "Memory and study techniques"
	}],
	"Motivación": [{
		"en": "Motivation"
	}],
	"Cursos gratis de Diseño": [{
		"en": "Free Design Courses"
	}],
	"Diseño web": [{
		"en": "Web design"
	}],
	"Diseño gáfico": [{
		"en": "Graphic design"
	}],
	"Herramientas de diseño": [{
		"en": "Design tools"
	}],
	"Experiencia de usuario": [{
		"en": "User experience"
	}],
	"Diseño de juegos": [{
		"en": "Game design"
	}],
	"Desing Thinking": [{
		"en": "Desing Thinking"
	}],
	"3D y animación": [{
		"en": "3D and animation"
	}],
	"Moda": [{
		"en": "fashion"
	}],
	"Diseño arquitectónico": [{
		"en": "Architectural design"
	}],
	"Diseño de interiores": [{
		"en": "Interior design"
	}],
	"Cursos gratis de Marketing": [{
		"en": "Free Marketing courses"
	}],
	"Marketing digital": [{
		"en": "Digital marketing"
	}],
	"Optimización de motores de búsqueda": [{
		"en": "Search engine optimization"
	}],
	"Marketing de redes sociales": [{
		"en": "Social media marketing"
	}],
	"Creación de marca": [{
		"en": "Brand creation"
	}],
	"Fundamentos de marketing": [{
		"en": "Fundamentals of Marketing"
	}],
	"Análisis y automatización": [{
		"en": "Analysis and automation"
	}],
	"Relaciones públicas": [{
		"en": "Public relations"
	}],
	"Publicidad": [{
		"en": "Advertising"
	}],
	"Marketing con vídeo y móviles": [{
		"en": "Marketing with video and mobile"
	}],
	"Merketing de contenidos": [{
		"en": "Merketing of contents"
	}],
	"Marketing tradicional": [{
		"en": "Traditional marketing"
	}],
	"Estrategia de posicionamiento": [{
		"en": "Positioning strategy"
	}],
	"Marketing de afiliados": [{
		"en": "Affiliate marketing"
	}],
	"Marketing de producto": [{
		"en": "Product marketing"
	}],
	"Cursos gratis de Música": [{
		"en": "Free Music Courses"
	}],
	"Instrumentos": [{
		"en": "Instruments"
	}],
	"Producción": [{
		"en": "Production"
	}],
	"Fundamentos sobre música": [{
		"en": "Fundamentals about music"
	}],
	"Vocal": [{
		"en": "Vocal"
	}],
	"Técnicas musicales": [{
		"en": "Musical techniques"
	}],
	"Software de música": [{
		"en": "Music software"
	}],
	"Cursos gratis de Salud y fitness": [{
		"en": "Free Health and fitness courses"
	}],
	"Fitness": [{
		"en": "Fitness"
	}],
	"Salud general": [{
		"en": "General health"
	}],
	"Deportes": [{
		"en": "sports"
	}],
	"Nutrición": [{
		"en": "Nutrition"
	}],
	"Yoga": [{
		"en": "Yoga"
	}],
	"Salud mental": [{
		"en": "Mental health"
	}],
	"Dietética": [{
		"en": "Dietetics"
	}],
	"Defensa personal": [{
		"en": "Self Defense"
	}],
	"Seguridad y primeros auxilios": [{
		"en": "Safety and first aid"
	}],
	"Baile": [{
		"en": "Dance"
	}],
	"Meditación": [{
		"en": "Meditation"
	}],
	"Cursos gratis de Fotografía": [{
		"en": "Free Photography Courses"
	}],
	"Fotografía digital": [{
		"en": "Digital photography"
	}],
	"Fundamentos de fotografía": [{
		"en": "Fundamentals of photography"
	}],
	"Retratos": [{
		"en": "Pictures"
	}],
	"Paisajes": [{
		"en": "Landscapes"
	}],
	"Blanco y negro": [{
		"en": "Black and white"
	}],
	"Herramientas de fotografía": [{
		"en": "Photography tools"
	}],
	"Fotografía móvil": [{
		"en": "Mobile photography"
	}],
	"Fotografía de viajes": [{
		"en": "Travel photography"
	}],
	"Fotografía comercial": [{
		"en": "Commercial photography"
	}],
	"Fotografía para bodas": [{
		"en": "Photography for weddings"
	}],
	"Fotografía de naturaleza": [{
		"en": "Nature photography"
	}],
	"Diseño de vídeo": [{
		"en": "Video design"
	}],
	"Cursos gratis de Estilo de vida": [{
		"en": "Free Lifestyle Courses"
	}],
	"Artes y manualidades": [{
		"en": "Arts and crafts"
	}],
	"Comida y bebida": [{
		"en": "Food and drink"
	}],
	"Belleza y maquillaje": [{
		"en": "Beauty and makeup"
	}],
	"Viajes": [{
		"en": "Travels"
	}],
	"Juegos": [{
		"en": "Games"
	}],
	"Bricolaje": [{
		"en": "DIY"
	}],
	"Cuidado y entrenamiento de mascotas": [{
		"en": "Pet care and training"
	}],
	"Cursos gratis de Idiomas": [{
		"en": "Free Languages ​​Courses"
	}],
	"Inglés": [{
		"en": "English"
	}],
	"Español": [{
		"en": "Spanish"
	}],
	"Alemán": [{
		"en": "German"
	}],
	"Francés": [{
		"en": "French"
	}],
	"Japonés": [{
		"en": "Japanese"
	}],
	"Portugués": [{
		"en": "Portuguese"
	}],
	"Chino": [{
		"en": "Chinese"
	}],
	"Ruso": [{
		"en": "Russian"
	}],
	"Latín": [{
		"en": "Latin"
	}],
	"Árabe": [{
		"en": "Arab"
	}],
	"Hebreo": [{
		"en": "Hebrew"
	}],
	"Italiano": [{
		"en": "Italian"
	}],
	"Cursos gratis de formación de profesorado": [{
		"en": "Free teacher training courses"
	}],
	"Diseño educativo": [{
		"en": "Educational design"
	}],
	"Desarrollo educativo": [{
		"en": "Educative development"
	}],
	"Herramientas de enseñanza": [{
		"en": "Teaching tools"
	}],
	"Cursos gratis de Estudios Académicos": [{
		"en": "Free Academic Studies Courses"
	}],
	"Ciencias Sociales": [{
		"en": "social Sciences"
	}],
	"Matemáticas y Ciencias": [{
		"en": "Math and science"
	}],
	"Humanidades": [{
		"en": "Humanities"
	}],
	"Cursos gratis para preparación de exámenes": [{
		"en": "Free courses for exam preparation"
	}],
	"Examen de acceso a programas de posgrado": [{
		"en": "Examination of access to graduate programs"
	}],
	"Examen de acceso a la universidad": [{
		"en": "University access test"
	}],
	"Técnicas de preparación para exámenes": [{
		"en": "Exam preparation techniques"
	}],
	"Aprenda a codificar o crear sitios web desde cero con estos cursos en línea. Los temas incluyen desarrollo web, aplicaciones móviles IOS, desarrollo de Android a juegos y comercio electrónico.": [{
		"en": "Learn how to code or create websites from scratch with these online courses. Topics include web development, IOS mobile applications, Android development to games and e-commerce."
	}],
	"La mejor colección de cursos de negocios y emprendimiento en línea. Desde iniciar una empresa hasta marketing, publicidad, finanzas y más. Comienza a aprender hoy.": [{
		"en": "The best collection of online business and entrepreneurship courses. From starting a business to marketing, advertising, finance and more. Start learning today."
	}],
	"Los últimos cursos en línea de informática y software. Prepárese para los exámenes de certificación o estudie las últimas arquitecturas de sistemas operativos.": [{
		"en": "The latest online computer and software courses. Prepare for certification exams or study the latest operating system architectures."
	}],
	"Mejore sus resultados y avance con estos cursos de productividad de oficina en: Microsoft Excel, Apple, Google, SAP, Intuit, Oracle, Salesforce y otros.": [{
		"en": "Improve your results and advance with these office productivity courses in: Microsoft Excel, Apple, Google, SAP, Intuit, Oracle, Salesforce and others."
	}],
	"Con los cursos de desarrollo personal en línea, aprenderá a ser más seguro, más feliz, productivo y exitoso. Regístrese hoy y comience a aprender.": [{
		"en": "With online personal development courses, you will learn to be safer, happier, productive and successful. Register today and start learning."
	}],
	"Los mejores cursos de diseño en línea: aprenda a diseñar sitios web, logotipos, carteles y más. Encuentre un curso y comience a aprender hoy.": [{
		"en": "The best online design courses: learn to design websites, logos, posters and more. Find a course and start learning today."
	}],
	"Aprenda marketing para hacer crecer su negocio. Desarrolle su marketing digital, redes sociales, hacking de crecimiento, contenido y habilidades de marca con estos excelentes cursos.": [{
		"en": "Learn marketing to grow your business. Develop your digital marketing, social networks, growth hacking, content and brand skills with these excellent courses."
	}],
	"Aprende música en línea. Los mejores cursos en línea de guitarra, piano, ukelele, autoharp y DJ. Descubre un curso y comienza a aprender.": [{
		"en": "Learn music online. The best online guitar, piano, ukulele, autoharp and DJ courses. Discover a course and start learning."
	}],
	"Obtenga más salud y ajuste con los cursos de fitness en línea. Aprenda yoga, pilates, meditación, tai chi y más. Encuentra un curso y comienza a transformar tu cuerpo.": [{
		"en": "Get more health and fit with online fitness courses. Learn yoga, pilates, meditation, tai chi and more. Find a course and begin to transform your body."
	}],
	"Lleva tus habilidades de fotografía al siguiente nivel. Regístrese en nuestros cursos de fotografía en línea gratuitos o de bajo costo y comience a tomar impresionantes fotos hoy.": [{
		"en": "Take your photography skills to the next level. Sign up for our free or low-cost online photography courses and start taking stunning photos today."
	}],
	"Aprende cómo cocinar, entrenar a tu cachorro, conseguir un trabajo de ensueño y mucho más.": [{
		"en": "Learn how to cook, train your puppy, get a dream job and much more."
	}],
	"Aprende cómo cocinar, entrenar a tu cachorro, conseguir un trabajo de ensueño y mucho más.": [{
		"en": "Learn how to cook, train your puppy, get a dream job and much more."
	}],
	"Con los cursos de idiomas en línea, puede dominar las habilidades que son importantes para usted de forma gratuita o a bajo costo desde su dispositivo móvil, tableta o computadora portátil.": [{
		"en": "With online language courses, you can master the skills that are important to you for free or at low cost from your mobile device, tablet or laptop."
	}],
	"Con los cursos de educación en línea, puede dominar las habilidades que son importantes para usted de forma gratuita o a bajo costo desde su dispositivo móvil, tableta o computadora portátil.": [{
		"en": "With online education courses, you can master the skills that are important to you for free or at low cost from your mobile device, tablet or laptop."
	}],
	"Tome cursos en línea en matemáticas, ciencia, geografía e historia de expertos.": [{
		"en": "Take online courses in math, science, geography and expert history."
	}],
	"Con los cursos de preparación para exámenes en línea, aprende cómo superar exitósamente esa prueba.": [{
		"en": "With on-line exam preparation courses, learn how to successfully pass that test."
	}]

}